{
    "css": {
        "0": "assets/css/component_slider-search_cod_130.css",
        "1": "assets/css/bootstrap-select.min.css"

    },
    "js": {
        "0": "assets/js/bootstrap-select.min.js"
    }
}