{
    "css": {
        "0": "assets/css/marcas_mod_old_003.css"
    },
    "js": {
        "0": "https://cdnjs.cloudflare.com/ajax/libs/slick-carousel/1.6.0/slick.js",
        "1": "assets/js/marcas_mod_old_003.js"
    }
}