{
	"detalhes": {
	    "css": {
	        "0": "css/style.css",
	        "1": "https://cdnjs.cloudflare.com/ajax/libs/bxslider/4.2.9/jquery.bxslider.min.css"
	    },
	    "js": {
	        "0": "https://cdnjs.cloudflare.com/ajax/libs/bxslider/4.2.9/jquery.bxslider.min.js",
			"1": "https://cdnjs.cloudflare.com/ajax/libs/flexslider/2.6.3/jquery.flexslider.min.js",
	        "2": "js/script-detalhes.js"
	    }
	},
	"modelos": {
	    "css": {
	        "0": "css/style-modelos.css",
	        "1": "css/animate.css"
	    },
	    "js": {
	        "0": "js/waypoints.min.js",
	        "1": "js/scripts-modelos.js"

	    }
	},
	"marcas": {
		"css": {
	        "0": "css/style-marcas.css",
	        "1": "css/animate.css"
	    },
	    "js": {
	        "0": "js/waypoints.min.js",
	        "1": "js/scripts-marcas.js"
	    }
	}
}